pi1 ; Geburtstag von Karl-Heinz ; Start Geburtstag ; 1 ;         1.00
pi2 ; Geburtstag von Karl-Heinz ; Geburtstag planen ; 6 ;         1.00
pi3 ; Geburtstag von Karl-Heinz ; Raum und Musik ; 9 ;         1.00
pi4 ; Geburtstag von Karl-Heinz ; Catering, Torte und Florist ; 7 ;         1.00
pi5 ; Geburtstag von Karl-Heinz ; Vorlaufzeit Geburtstag ; 14 ;         1.00
pi6 ; Geburtstag von Karl-Heinz ; Diashow ; 14 ;         1.00
pi7 ; Geburtstag von Karl-Heinz ; Dekoration ; 11 ;         1.00
pi8 ; Geburtstag von Karl-Heinz ; Ende Geburtstag ; 14 ;         1.00
pi9 ; Hochzeit von Susi und Franz ; Start Hochzeit ; 1 ;         1.00
pi10 ; Hochzeit von Susi und Franz ; Hochzeit planen ; 18 ;         1.00
pi11 ; Hochzeit von Susi und Franz ; Raum Hochzeit ; 22 ;         1.00
pi12 ; Hochzeit von Susi und Franz ; Raumdekoration und Sitzordnung ; 32 ;         1.00
pi13 ; Hochzeit von Susi und Franz ; Catering, Florist, Life-Band und Fotograf ; 19 ;         1.00
pi14 ; Hochzeit von Susi und Franz ; 1. Vorlaufzeit Hochzeit ; 33 ;         1.00
pi15 ; Hochzeit von Susi und Franz ; Verkostung Hochzeitstorte ; 19 ;         1.00
pi16 ; Hochzeit von Susi und Franz ; Hochzeitstorte bestellen ; 23 ;         1.00
pi17 ; Hochzeit von Susi und Franz ; 2. Vorlaufzeit Hochzeit ; 33 ;         1.00
pi18 ; Hochzeit von Susi und Franz ; Ende Hochzeit ; 33 ;         1.00
pi19 ; Firmenfeier von TUI ; Start Firmenfeier ; 1 ;         1.00
pi20 ; Firmenfeier von TUI ; Firmenfeier planen ; 8 ;         1.00
pi21 ; Firmenfeier von TUI ; Raum und Musik Firmenevent ; 15 ;         1.00
pi22 ; Firmenfeier von TUI ; Raumdekoration Rednerpult ; 21 ;         1.00
pi23 ; Firmenfeier von TUI ; Catering und Florist ; 12 ;         1.00
pi24 ; Firmenfeier von TUI ; Vorlaufzeit Firmenfeier ; 21 ;         1.00
pi25 ; Firmenfeier von TUI ; Ende Firmenfeier ; 21 ;         1.00
pi26 ; Mein 7ter Geburtstag ; Planen ; 5 ;         1.00
pi27 ; Mein 7ter Geburtstag ; dj ; 14 ;         1.00
